J774,DMOG,Day,Value
FALSE,TRUE,1,5
FALSE,TRUE,1,2
FALSE,TRUE,1,5
FALSE,TRUE,1,2
FALSE,TRUE,1,7
FALSE,TRUE,1,3
FALSE,TRUE,1,4
FALSE,TRUE,1,1
FALSE,TRUE,1,2
FALSE,TRUE,1,3
FALSE,FALSE,1,4
FALSE,FALSE,1,0
FALSE,FALSE,1,5
FALSE,FALSE,1,0
FALSE,FALSE,1,4
FALSE,FALSE,1,3
FALSE,FALSE,1,5
FALSE,FALSE,1,3
TRUE,TRUE,1,8
TRUE,TRUE,1,9
TRUE,TRUE,1,15
TRUE,TRUE,1,39
TRUE,TRUE,1,28
TRUE,TRUE,1,56
TRUE,TRUE,1,25
TRUE,TRUE,1,23
TRUE,FALSE,1,6
TRUE,FALSE,1,18
TRUE,FALSE,1,10
TRUE,FALSE,1,23
TRUE,FALSE,1,11
TRUE,FALSE,1,1
TRUE,FALSE,1,0
TRUE,FALSE,1,7
FALSE,FALSE,2,0
FALSE,FALSE,2,2
FALSE,FALSE,2,3
FALSE,FALSE,2,4
FALSE,FALSE,2,0
FALSE,FALSE,2,0
FALSE,FALSE,2,2
FALSE,FALSE,2,4
FALSE,FALSE,2,3
FALSE,FALSE,2,0
FALSE,FALSE,3,5
FALSE,FALSE,3,6
FALSE,FALSE,3,13
FALSE,FALSE,3,16
FALSE,FALSE,3,27
FALSE,FALSE,3,16
FALSE,FALSE,3,15
FALSE,FALSE,4,3
FALSE,FALSE,4,2
FALSE,FALSE,4,3
FALSE,FALSE,4,5
FALSE,FALSE,4,6
FALSE,FALSE,4,1
FALSE,FALSE,4,1
FALSE,FALSE,4,7
FALSE,FALSE,4,0
FALSE,FALSE,4,2
FALSE,TRUE,2,93
FALSE,TRUE,2,183
FALSE,TRUE,2,89
FALSE,TRUE,2,42
FALSE,TRUE,2,17
FALSE,TRUE,2,4
FALSE,TRUE,2,27
FALSE,TRUE,2,36
FALSE,TRUE,2,95
FALSE,TRUE,2,39
FALSE,TRUE,3,30
FALSE,TRUE,3,32
FALSE,TRUE,3,25
FALSE,TRUE,3,29
FALSE,TRUE,3,21
FALSE,TRUE,3,4
FALSE,TRUE,3,26
FALSE,TRUE,3,6
FALSE,TRUE,4,1
FALSE,TRUE,4,11
FALSE,TRUE,4,17
FALSE,TRUE,4,5
FALSE,TRUE,4,3
FALSE,TRUE,4,5
FALSE,TRUE,4,9
FALSE,TRUE,4,8
FALSE,TRUE,4,10
FALSE,TRUE,4,5
TRUE,FALSE,2,11
TRUE,FALSE,2,34
TRUE,FALSE,2,13
TRUE,FALSE,2,11
TRUE,FALSE,2,18
TRUE,FALSE,2,44
TRUE,FALSE,2,14
TRUE,FALSE,2,30
TRUE,FALSE,2,2
TRUE,FALSE,2,6
TRUE,FALSE,3,58
TRUE,FALSE,3,21
TRUE,FALSE,3,52
TRUE,FALSE,3,24
TRUE,FALSE,3,25
TRUE,FALSE,3,32
TRUE,FALSE,4,9
TRUE,FALSE,4,5
TRUE,FALSE,4,13
TRUE,FALSE,4,4
TRUE,FALSE,4,6
TRUE,FALSE,4,11
TRUE,FALSE,4,2
TRUE,FALSE,4,1
TRUE,FALSE,4,1
TRUE,FALSE,4,1
TRUE,TRUE,2,53
TRUE,TRUE,2,39
TRUE,TRUE,2,83
TRUE,TRUE,2,63
TRUE,TRUE,2,36
TRUE,TRUE,2,133
TRUE,TRUE,2,20
TRUE,TRUE,2,20
TRUE,TRUE,2,17
TRUE,TRUE,2,71
TRUE,TRUE,3,45
TRUE,TRUE,3,62
TRUE,TRUE,3,62
TRUE,TRUE,3,18
TRUE,TRUE,3,47
TRUE,TRUE,3,18
TRUE,TRUE,4,1
TRUE,TRUE,4,7
TRUE,TRUE,4,8
TRUE,TRUE,4,7
TRUE,TRUE,4,8
TRUE,TRUE,4,9
TRUE,TRUE,4,14
TRUE,TRUE,4,5
TRUE,TRUE,4,2
